C:\Users\Zein\eclipse-workspace\testJWT\src\main\java\com\javainuse\model\DAOUser.java
C:\Users\Zein\eclipse-workspace\testJWT\src\main\java\com\javainuse\controller\JwtAuthenticationController.java
C:\Users\Zein\eclipse-workspace\testJWT\src\main\java\com\javainuse\dao\UserDao.java
C:\Users\Zein\eclipse-workspace\testJWT\src\main\java\com\javainuse\model\UserDTO.java
C:\Users\Zein\eclipse-workspace\testJWT\src\main\java\com\javainuse\config\WebSecurityConfig.java
C:\Users\Zein\eclipse-workspace\testJWT\src\main\java\com\javainuse\controller\HelloWorldController.java
C:\Users\Zein\eclipse-workspace\testJWT\src\main\java\com\javainuse\service\JwtUserDetailsService.java
C:\Users\Zein\eclipse-workspace\testJWT\src\main\java\com\javainuse\config\JwtAuthenticationEntryPoint.java
C:\Users\Zein\eclipse-workspace\testJWT\src\main\java\com\javainuse\config\JwtRequestFilter.java
C:\Users\Zein\eclipse-workspace\testJWT\src\main\java\com\javainuse\model\JwtRequest.java
C:\Users\Zein\eclipse-workspace\testJWT\src\main\java\com\javainuse\TestJwtApplication.java
C:\Users\Zein\eclipse-workspace\testJWT\src\main\java\com\javainuse\config\JwtTokenUtil.java
C:\Users\Zein\eclipse-workspace\testJWT\src\main\java\com\javainuse\model\JwtResponse.java
